Tarefa da Semana 1
…
Tarefa da Semana 1

Leonardo da Silva Correa

20/04/2021

Mental health in tech survey

df

## # A tibble: 1,259 x 27
##    Timestamp             Age Gender Country   state self_employed family_history
##    <dttm>              <dbl> <chr>  <chr>     <chr> <chr>         <chr>         
##  1 2014-08-27 11:29:31    37 Female United S IL    <NA>          No            
##  2 2014-08-27 11:29:37    44 M      United S IN    <NA>          No            
##  3 2014-08-27 11:29:44    32 Male   Canada    <NA>  <NA>          No            
##  4 2014-08-27 11:29:46    31 Male   United K <NA>  <NA>          Yes           
##  5 2014-08-27 11:30:22    31 Male   United S TX    <NA>          No            
##  6 2014-08-27 11:31:22    33 Male   United S TN    <NA>          Yes           
##  7 2014-08-27 11:31:50    35 Female United S MI    <NA>          Yes           
##  8 2014-08-27 11:32:05    39 M      Canada    <NA>  <NA>          No            
##  9 2014-08-27 11:32:39    42 Female United S IL    <NA>          Yes           
## 10 2014-08-27 11:32:43    23 Male   Canada    <NA>  <NA>          No            
## #  with 1,249 more rows, and 20 more variables: treatment <chr>,
## #   work_interfere <chr>, no_employees <chr>, remote_work <chr>,
## #   tech_company <chr>, benefits <chr>, care_options <chr>,
## #   wellness_program <chr>, seek_help <chr>, anonymity <chr>, leave <chr>,
## #   mental_health_consequence <chr>, phys_health_consequence <chr>,
## #   coworkers <chr>, supervisor <chr>, mental_health_interview <chr>,
## #   phys_health_interview <chr>, mental_vs_physical <chr>,
## #   obs_consequence <chr>, comments <chr>
…
#DESVIO PADRO
df %>% summarize_if(is.numeric, sd)

## # A tibble: 1 x 1
##           Age
##         <dbl>
## 1 2818299443.

#ATRIBUTOS CATEGRICOS
categoricalColumns<-select(df,where(is.character))
categoricalColumns %>% count(Gender)

## # A tibble: 47 x 2
##    Gender                 n
##    <chr>              <int>
##  1 A little about you     1
##  2 Agender                1
##  3 All                    1
##  4 Androgyne              1
##  5 Cis Female             1
##  6 cis male               1
##  7 Cis Male               2
##  8 Cis Man                1
##  9 cis-female/femme       1
## 10 Enby                   1
## #  with 37 more rows

categoricalColumns %>% count(Country)

## # A tibble: 48 x 2
##    Country                    n
##    <chr>                  <int>
##  1 Australia                 21
##  2 Austria                    3
##  3 Bahamas, The               1
##  4 Belgium                    6
##  5 Bosnia and Herzegovina     1
##  6 Brazil                     6
##  7 Bulgaria                   4
##  8 Canada                    72
##  9 China                      1
## 10 Colombia                   2
## #  with 38 more rows

categoricalColumns %>% count(state)

## # A tibble: 46 x 2
##    state     n
##    <chr> <int>
##  1 AL        8
##  2 AZ        7
##  3 CA      138
##  4 CO        9
##  5 CT        4
##  6 DC        4
##  7 FL       15
##  8 GA       12
##  9 IA        4
## 10 ID        1
## #  with 36 more rows
…
Outros Grficos

groups <- filter(df,Age > 0 & Age < 100) %>% group_by(Country,tech_company)
groups <- groups %>% summarise(Age = mean(Age))

## `summarise()` has grouped output by 'Country'. You can override using the `.groups` argument.

groups

## # A tibble: 62 x 3
## # Groups:   Country [47]
##    Country                tech_company   Age
##    <chr>                         <dbl> <dbl>
##  1 Australia                         0  27.8
##  2 Australia                         1  29.3
##  3 Austria                           1  26.7
##  4 Bahamas, The                      1   8  
##  5 Belgium                           0  29.3
##  6 Belgium                           1  29.7
##  7 Bosnia and Herzegovina            1  25  
##  8 Brazil                            1  27.3
##  9 Bulgaria                          1  28.2
## 10 Canada                            0  30.6
## #  with 52 more rows
…
