Tarefa Pre-processamento
…
Padronizao

summary(dfCleaned)

##       Age       
##  Min.   : 5.00  
##  1st Qu.:27.00  
##  Median :31.00  
##  Mean   :32.02  
##  3rd Qu.:36.00  
##  Max.   :72.00

dfCleaned

## # A tibble: 1,254 x 1
##      Age
##    <dbl>
##  1    37
##  2    44
##  3    32
##  4    31
##  5    31
##  6    33
##  7    35
##  8    39
##  9    42
## 10    23
## #  with 1,244 more rows
…
df_new$tech_company[df_new$tech_company == "No"] = 0
df_new$tech_company[df_new$tech_company == "Yes"] = 1
df_new$tech_company = as.numeric(df_new$tech_company)
df_new$remote_work[df_new$remote_work == "No"] = 0
df_new$remote_work[df_new$remote_work == "Yes"] = 1
df_new$remote_work = as.numeric(df_new$remote_work)

groups <- filter(df_new,Age > 0 & Age < 100) %>% group_by(Country,tech_company)
groups <- groups %>% summarise(Age = mean(Age))

## `summarise()` has grouped output by 'Country'. You can override using the `.groups` argument.

groups

## # A tibble: 62 x 3
## # Groups:   Country [47]
##    Country                tech_company   Age
##    <chr>                         <dbl> <dbl>
##  1 Australia                         0  27.8
##  2 Australia                         1  29.3
##  3 Austria                           1  26.7
##  4 Bahamas, The                      1   8  
##  5 Belgium                           0  29.3
##  6 Belgium                           1  29.7
##  7 Bosnia and Herzegovina            1  25  
##  8 Brazil                            1  27.3
##  9 Bulgaria                          1  28.2
## 10 Canada                            0  30.6
## #  with 52 more rows
…
s2

## # A tibble: 50 x 27
##    Timestamp             Age Gender  Country  state self_employed family_history
##    <dttm>              <dbl> <chr>   <chr>    <chr> <chr>         <chr>         
##  1 2014-08-27 12:33:36    36 Male    United  WA    No            No            
##  2 2014-08-27 15:29:03    33 male    United  OH    No            Yes           
##  3 2014-08-27 23:57:16    37 Male    United  WA    No            No            
##  4 2014-08-28 03:06:14    30 Male    United  <NA>  No            No            
##  5 2014-08-28 15:25:39    48 Female United  CA    No            Yes           
##  6 2014-08-29 09:29:37    25 Male    United  PA    No            Yes           
##  7 2014-08-29 12:20:01    25 Male    South A <NA>  No            Yes           
##  8 2014-08-30 11:48:52    29 M       France   <NA>  No            No            
##  9 2014-09-01 21:34:12    35 M       United  IN    No            Yes           
## 10 2015-05-06 10:14:50    22 Male    Austral <NA>  No            Yes           
## #  with 40 more rows, and 20 more variables: treatment <chr>,
## #   work_interfere <chr>, no_employees <chr>, remote_work <chr>,
## #   tech_company <chr>, benefits <chr>, care_options <chr>,
## #   wellness_program <chr>, seek_help <chr>, anonymity <chr>, leave <chr>,
## #   mental_health_consequence <chr>, phys_health_consequence <chr>,
## #   coworkers <chr>, supervisor <chr>, mental_health_interview <chr>,
## #   phys_health_interview <chr>, mental_vs_physical <chr>,
## #   obs_consequence <chr>, comments <chr>
…
